<?xml version="1.0" encoding="utf-8"?>
<!-- Generator: Adobe Illustrator 19.2.1, SVG Export Plug-In . SVG Version: 6.00 Build 0)  -->
<svg version="1.1" id="Слой_1" xmlns="http://www.w3.org/2000/svg" xmlns:xlink="http://www.w3.org/1999/xlink" x="0px" y="0px"
	 width="96px" height="240px" viewBox="0 0 96 240" style="enable-background:new 0 0 96 240;" xml:space="preserve">
<style type="text/css">
	.st0{fill:#3399FF;}
	.st1{fill:#708BA5;}
	.st2{fill:#FF6666;}
	.st3{fill:#486179;}
	.st4{fill:#757575;}
	.st5{fill:#CCCCCC;}
	.st6{fill-rule:evenodd;clip-rule:evenodd;fill:#919191;}
	.st7{fill-rule:evenodd;clip-rule:evenodd;fill:#FFFFFF;}
</style>
<path class="st0" d="M43.5,19.5c0,0.6-0.4,1-1,1c-0.5,0-1-0.5-1-1c0-3.1-2.5-5.6-5.5-5.6s-5.5,2.5-5.5,5.6c0,0.6-0.4,1-1,1
	c-0.5,0-1-0.5-1-1c0-3.3,2.1-6.1,5-7.2c-1.3-0.9-2.2-2.3-2.2-4c0-2.6,2.1-4.8,4.7-4.8c2.6,0,4.7,2.1,4.7,4.8c0,1.7-0.9,3.2-2.2,4
	C41.4,13.4,43.5,16.2,43.5,19.5z M36,5.5c-1.5,0-2.7,1.2-2.7,2.8c0,1.5,1.2,2.8,2.7,2.8s2.7-1.2,2.7-2.8C38.7,6.8,37.5,5.5,36,5.5z"
	/>
<path class="st0" d="M42.3,40.3c-0.3,1.6-1.4,3-2.9,3.7c-0.2,1.1-1.3,2-2.5,2c-1.4,0-2.5-1.1-2.5-2.5s1.1-2.5,2.5-2.5
	c0.8,0,1.5,0.4,2,1c0.9-0.5,1.4-1.5,1.5-2.5v-0.1V32c0-2.2-1.8-3.9-4-3.9h-0.2c-0.1,0-0.1,0-0.2,0c-0.1,0-0.1,0-0.2,0h-0.2
	c-2.2,0-4,1.8-4,3.9v7.4c0,0.6-0.5,1-1,1H30c-2,0-3.5-1.6-3.5-3.5v-2.4c0-1.8,1.4-3.3,3.2-3.5c0.5-2.8,2.9-5,5.9-5h0.2
	c0.1,0,0.1,0,0.2,0c0.1,0,0.1,0,0.2,0h0.2c3,0,5.4,2.2,5.9,5c1.8,0.2,3.2,1.7,3.2,3.5v2.4C45.5,38.7,44.1,40.2,42.3,40.3z M36.9,43
	c-0.3,0-0.5,0.2-0.5,0.5s0.2,0.5,0.5,0.5s0.5-0.2,0.5-0.5S37.2,43,36.9,43z M29.6,33c-0.6,0.2-1.1,0.8-1.1,1.4v2.4
	c0,0.7,0.5,1.3,1.1,1.4V33z M43.5,34.5c0-0.7-0.5-1.3-1.1-1.4v5.3c0.6-0.2,1.1-0.8,1.1-1.4V34.5z"/>
<path class="st0" d="M38.4,53.9c-0.5-0.5-1.2-0.8-2.1-0.8c-1.1,0-1.9,0.3-2.5,0.9c-0.6,0.6-0.8,1.4-0.8,2.4c0,0.3-0.1,0.6-0.3,0.8
	s-0.5,0.3-0.9,0.3c-0.3,0-0.6-0.1-0.8-0.3c-0.2-0.2-0.3-0.5-0.3-0.8c0-1,0.2-2,0.7-2.8s1.1-1.4,2-1.9s1.9-0.7,3-0.7
	c1,0,1.9,0.2,2.7,0.6c0.8,0.4,1.4,1,1.9,1.7c0.4,0.7,0.7,1.6,0.7,2.5c0,0.8-0.1,1.5-0.4,2.1c-0.3,0.6-0.6,1.2-1.1,1.6
	c-0.4,0.5-1,1-1.7,1.5c-0.4,0.3-0.6,0.7-0.8,1.2s-0.3,0.9-0.3,1.3c0,0.3-0.1,0.6-0.3,0.8c-0.2,0.2-0.5,0.3-0.9,0.3
	c-0.3,0-0.6-0.1-0.8-0.3c-0.2-0.2-0.3-0.5-0.3-0.8c0-0.6,0.2-1.3,0.5-2s0.8-1.3,1.4-1.8c0.6-0.5,1-0.9,1.3-1.2s0.6-0.7,0.8-1.2
	s0.3-1,0.3-1.6C39.1,55.1,38.9,54.5,38.4,53.9z M37.2,66.3c0.3,0.3,0.5,0.7,0.5,1.1s-0.2,0.8-0.5,1.1C36.8,68.8,36.5,69,36,69
	c-0.4,0-0.8-0.2-1.1-0.5s-0.5-0.7-0.5-1.1s0.2-0.8,0.5-1.1c0.3-0.3,0.7-0.5,1.1-0.5C36.5,65.9,36.8,66,37.2,66.3z"/>
<path class="st1" d="M19.5,19.5c0,0.6-0.4,1-1,1c-0.5,0-1-0.5-1-1c0-3.1-2.5-5.6-5.5-5.6s-5.5,2.5-5.5,5.6c0,0.6-0.4,1-1,1
	c-0.5,0-1-0.5-1-1c0-3.3,2.1-6.1,5-7.2c-1.3-0.9-2.2-2.3-2.2-4c0-2.6,2.1-4.8,4.7-4.8s4.7,2.1,4.7,4.8c0,1.7-0.9,3.2-2.2,4
	C17.4,13.4,19.5,16.2,19.5,19.5z M12,5.5c-1.5,0-2.7,1.2-2.7,2.8c0,1.5,1.2,2.8,2.7,2.8s2.7-1.2,2.7-2.8C14.7,6.8,13.5,5.5,12,5.5z"
	/>
<path class="st1" d="M18.3,40.3c-0.3,1.6-1.4,3-2.9,3.7c-0.2,1.1-1.3,2-2.5,2c-1.4,0-2.5-1.1-2.5-2.5s1.1-2.5,2.5-2.5
	c0.8,0,1.5,0.4,2,1c0.9-0.5,1.4-1.5,1.5-2.5v-0.1V32c0-2.2-1.8-3.9-4-3.9h-0.2c-0.1,0-0.1,0-0.2,0c-0.1,0-0.1,0-0.2,0h-0.2
	c-2.2,0-4,1.8-4,3.9v7.4c0,0.6-0.5,1-1,1H6.1c-2,0-3.5-1.6-3.5-3.5v-2.4c0-1.8,1.4-3.3,3.2-3.5c0.5-2.8,2.9-5,5.9-5h0.2
	c0.1,0,0.1,0,0.2,0c0.1,0,0.1,0,0.2,0h0.2c3,0,5.4,2.2,5.9,5c1.8,0.2,3.2,1.7,3.2,3.5v2.4C21.5,38.7,20.1,40.2,18.3,40.3z M12.9,43
	c-0.3,0-0.5,0.2-0.5,0.5s0.2,0.5,0.5,0.5s0.5-0.2,0.5-0.5S13.2,43,12.9,43z M5.6,33c-0.6,0.2-1.1,0.8-1.1,1.4v2.4
	c0,0.7,0.5,1.3,1.1,1.4V33z M19.5,34.5c0-0.7-0.5-1.3-1.1-1.4v5.3c0.6-0.2,1.1-0.8,1.1-1.4V34.5z"/>
<path class="st1" d="M14.4,53.9c-0.5-0.5-1.2-0.8-2.1-0.8c-1.1,0-1.9,0.3-2.5,0.9C9.2,54.6,9,55.4,9,56.4c0,0.3-0.1,0.6-0.3,0.8
	s-0.5,0.3-0.9,0.3c-0.3,0-0.6-0.1-0.8-0.3c-0.2-0.2-0.3-0.5-0.3-0.8c0-1,0.2-2,0.7-2.8s1.1-1.4,2-1.9s1.9-0.7,3-0.7
	c1,0,1.9,0.2,2.7,0.6c0.8,0.4,1.4,1,1.9,1.7c0.4,0.7,0.7,1.6,0.7,2.5c0,0.8-0.1,1.5-0.4,2.1s-0.6,1.2-1.1,1.6c-0.4,0.5-1,1-1.7,1.5
	c-0.4,0.3-0.6,0.7-0.8,1.2s-0.3,0.9-0.3,1.3c0,0.3-0.1,0.6-0.3,0.8s-0.5,0.3-0.9,0.3c-0.3,0-0.6-0.1-0.8-0.3
	c-0.2-0.2-0.3-0.5-0.3-0.8c0-0.6,0.2-1.3,0.5-2s0.8-1.3,1.4-1.8c0.6-0.5,1-0.9,1.3-1.2s0.6-0.7,0.8-1.2s0.3-1,0.3-1.6
	C15.1,55.1,14.9,54.5,14.4,53.9z M13.2,66.3c0.3,0.3,0.5,0.7,0.5,1.1s-0.2,0.8-0.5,1.1C12.8,68.8,12.5,69,12,69
	c-0.4,0-0.8-0.2-1.1-0.5s-0.5-0.7-0.5-1.1s0.2-0.8,0.5-1.1c0.3-0.3,0.7-0.5,1.1-0.5C12.5,65.9,12.8,66,13.2,66.3z"/>
<path class="st1" d="M16.5,83h-5.2v-2.6c0-0.2-0.1-0.4-0.3-0.4c-0.2-0.1-0.4,0-0.5,0.1l-3.7,3.5c-0.2,0.2-0.2,0.5,0,0.7l3.7,3.5
	C10.6,88,10.8,88,11,88c0.2-0.1,0.3-0.2,0.3-0.4V85h5.2c0.6,0,1-0.4,1-1C17.5,83.5,17,83,16.5,83z"/>
<path class="st0" d="M40.5,83h-5.2v-2.6c0-0.2-0.1-0.4-0.3-0.4c-0.2-0.1-0.4,0-0.5,0.1l-3.7,3.5c-0.2,0.2-0.2,0.5,0,0.7l3.7,3.5
	C34.6,88,34.8,88,35,88c0.2-0.1,0.3-0.2,0.3-0.4V85h5.2c0.6,0,1-0.4,1-1C41.5,83.5,41,83,40.5,83z"/>
<path class="st2" d="M69.6,16L63,4.5c-1.3-2.3-4.6-2.3-6,0L50.4,16c-1.4,2.3,0.3,5.3,3,5.3h13.3C69.3,21.2,71,18.3,69.6,16z M59,8.9
	c0-0.3,0.1-0.5,0.3-0.7c0.4-0.4,1-0.4,1.4,0C60.9,8.4,61,8.6,61,8.9V14c0,0.3-0.1,0.5-0.3,0.7S60.2,15,60,15c-0.3,0-0.5-0.1-0.7-0.3
	l0,0C59.1,14.5,59,14.3,59,14V8.9z M60.8,17.8c-0.2,0.2-0.5,0.3-0.8,0.3s-0.6-0.1-0.8-0.3c-0.2-0.2-0.3-0.5-0.3-0.8s0.1-0.6,0.3-0.9
	c0.5-0.5,1.2-0.5,1.7,0c0.2,0.2,0.3,0.5,0.3,0.9C61.2,17.2,61.1,17.5,60.8,17.8z"/>
<path class="st3" d="M61.4,36l5.2,5.3c0.4,0.4,0.4,1,0,1.4c-0.2,0.2-0.4,0.3-0.7,0.3c-0.3,0-0.5-0.1-0.7-0.3L60,37.4l-5.2,5.3
	c-0.2,0.2-0.4,0.3-0.7,0.3s-0.5-0.1-0.7-0.3c-0.4-0.4-0.4-1,0-1.4l5.2-5.3l-5.2-5.3c-0.4-0.4-0.4-1,0-1.4s1-0.4,1.4,0l5.2,5.3
	l5.2-5.3c0.4-0.4,1-0.4,1.4,0s0.4,1,0,1.4L61.4,36z"/>
<path class="st4" d="M22.9,101.7l-9.3,9.2c-0.3,0.3-0.6,0.5-1,0.6l0,0l-2.8,0.8c-0.1,0-0.3,0.1-0.4,0.1c-0.4,0-0.9-0.2-1.2-0.5
	c-0.4-0.4-0.6-1-0.4-1.6l0.8-2.8c0.1-0.4,0.3-0.7,0.6-1l9.3-9.2c0.9-0.9,2.3-0.9,3.2,0l1.3,1.2c0.4,0.4,0.7,1,0.7,1.6
	C23.6,100.7,23.3,101.3,22.9,101.7z M21.5,99.9l-1.3-1.2c-0.1-0.1-0.1-0.1-0.2-0.1s-0.1,0-0.2,0.1l-9.3,9.2l-0.1,0.1l-0.6,2.2
	l2.2-0.6c0,0,0.1,0,0.1-0.1l9.3-9.2c0.1-0.1,0.1-0.1,0.1-0.2C21.6,100.1,21.6,100,21.5,99.9z M11.6,101.5h-8c-0.6,0-1,0.4-1,1v13.9
	c0,0.5,0.4,1,1,1h14c0.6,0,1-0.4,1-1v-8c0-0.5,0.4-1,1-1s1,0.4,1,1v8c0,1.6-1.4,3-3,3h-14c-1.7,0-3-1.3-3-3v-13.9c0-1.6,1.3-3,3-3h8
	c0.6,0,1,0.4,1,1S12.2,101.5,11.6,101.5z"/>
<path class="st4" d="M20.6,131.7c-0.1,0.2-0.1,0.4,0,0.5l2.2,2.9c0.2,0.3,0.3,0.6,0.1,0.9c-0.4,1.1-1,2.1-1.8,3.1
	c-0.2,0.3-0.6,0.4-0.9,0.4l-3.7-0.4c-0.2,0-0.4,0.1-0.5,0.3l-1.5,3.3c-0.1,0.3-0.4,0.5-0.8,0.6c-0.7,0.1-1.2,0.1-1.8,0.1
	s-1.1,0-1.8-0.1c-0.3-0.1-0.6-0.3-0.8-0.6L8,139.4c-0.1-0.2-0.3-0.3-0.5-0.3l-3.7,0.4c-0.3,0-0.7-0.1-0.9-0.4
	c-0.8-0.9-1.4-1.9-1.8-3.1c-0.1-0.3-0.1-0.7,0.1-0.9l2.2-2.9c0.1-0.2,0.1-0.4,0-0.5l-2.2-2.9c-0.2-0.3-0.3-0.6-0.1-0.9
	c0.4-1.1,1-2.1,1.8-3.1c0.2-0.3,0.6-0.4,0.9-0.4l3.7,0.4c0.2,0,0.4-0.1,0.5-0.3l1.5-3.3c0.1-0.3,0.4-0.5,0.8-0.6
	c1.3-0.2,2.3-0.2,3.6,0c0.3,0.1,0.6,0.3,0.8,0.6l1.5,3.3c0.1,0.2,0.3,0.3,0.5,0.3l3.7-0.4c0.3,0,0.7,0.1,0.9,0.4
	c0.8,0.9,1.4,1.9,1.8,3.1c0.1,0.3,0.1,0.7-0.1,0.9L20.6,131.7z M19.9,126.5l-3.1,0.3c-1.1,0.1-2.1-0.5-2.5-1.4l-1.3-2.8
	c-0.7-0.1-1.2-0.1-1.9,0l-1.3,2.8c-0.4,1-1.4,1.6-2.5,1.4l-3.1-0.3c-0.4,0.5-0.7,1-0.9,1.6l1.8,2.5c0.6,0.9,0.6,2,0,2.9L3.3,136
	c0.3,0.6,0.6,1.1,0.9,1.6l3.1-0.3c1.1-0.1,2.1,0.5,2.5,1.4l1.3,2.8c0.7,0.1,1.2,0.1,1.9,0l1.3-2.8c0.4-1,1.4-1.6,2.5-1.4l3.1,0.3
	c0.4-0.5,0.7-1,0.9-1.6l-1.8-2.5c-0.6-0.9-0.6-2,0-2.9l1.8-2.5C20.6,127.5,20.3,127,19.9,126.5z M12.1,136.7c-2.7,0-4.8-2.1-4.8-4.7
	c0-2.6,2.2-4.7,4.8-4.7c2.7,0,4.8,2.1,4.8,4.7C16.9,134.6,14.7,136.7,12.1,136.7z M12.1,129.3c-1.5,0-2.8,1.2-2.8,2.7
	s1.3,2.7,2.8,2.7s2.8-1.2,2.8-2.7S13.6,129.3,12.1,129.3z"/>
<path class="st0" d="M46.9,101.7l-9.3,9.2c-0.3,0.3-0.6,0.5-1,0.6l0,0l-2.8,0.8c-0.1,0-0.3,0.1-0.4,0.1c-0.4,0-0.9-0.2-1.2-0.5
	c-0.4-0.4-0.6-1-0.4-1.6l0.8-2.8c0.1-0.4,0.3-0.7,0.6-1l9.3-9.2c0.9-0.9,2.3-0.9,3.2,0l1.3,1.2c0.4,0.4,0.7,1,0.7,1.6
	C47.6,100.7,47.3,101.3,46.9,101.7z M45.5,99.9l-1.3-1.2c-0.1-0.1-0.1-0.1-0.2-0.1c-0.1,0-0.1,0-0.2,0.1l-9.3,9.2l-0.1,0.1l-0.6,2.2
	l2.2-0.6c0,0,0.1,0,0.1-0.1l9.3-9.2c0.1-0.1,0.1-0.1,0.1-0.2C45.6,100.1,45.6,100,45.5,99.9z M35.6,101.5h-8c-0.6,0-1,0.4-1,1v13.9
	c0,0.5,0.4,1,1,1h14c0.6,0,1-0.4,1-1v-8c0-0.5,0.4-1,1-1s1,0.4,1,1v8c0,1.6-1.4,3-3,3h-14c-1.7,0-3-1.3-3-3v-13.9c0-1.6,1.3-3,3-3h8
	c0.6,0,1,0.4,1,1S36.2,101.5,35.6,101.5z"/>
<path class="st0" d="M44.6,131.7c-0.1,0.2-0.1,0.4,0,0.5l2.2,2.9c0.2,0.3,0.3,0.6,0.1,0.9c-0.4,1.1-1,2.1-1.8,3.1
	c-0.2,0.3-0.6,0.4-0.9,0.4l-3.7-0.4c-0.2,0-0.4,0.1-0.5,0.3l-1.5,3.3c-0.1,0.3-0.4,0.5-0.8,0.6c-0.7,0.1-1.2,0.1-1.8,0.1
	s-1.1,0-1.8-0.1c-0.3-0.1-0.6-0.3-0.8-0.6l-1.5-3.3c-0.1-0.2-0.3-0.3-0.5-0.3l-3.7,0.4c-0.3,0-0.7-0.1-0.9-0.4
	c-0.8-0.9-1.4-1.9-1.8-3.1c-0.1-0.3-0.1-0.7,0.1-0.9l2.2-2.9c0.1-0.2,0.1-0.4,0-0.5l-2.2-2.9c-0.2-0.3-0.3-0.6-0.1-0.9
	c0.4-1.1,1-2.1,1.8-3.1c0.2-0.3,0.6-0.4,0.9-0.4l3.7,0.4c0.2,0,0.4-0.1,0.5-0.3l1.5-3.3c0.1-0.3,0.4-0.5,0.8-0.6
	c1.3-0.2,2.3-0.2,3.6,0c0.3,0.1,0.6,0.3,0.8,0.6l1.5,3.3c0.1,0.2,0.3,0.3,0.5,0.3l3.7-0.4c0.3,0,0.7,0.1,0.9,0.4
	c0.8,0.9,1.4,1.9,1.8,3.1c0.1,0.3,0.1,0.7-0.1,0.9L44.6,131.7z M43.9,126.5l-3.1,0.3c-1.1,0.1-2.1-0.5-2.5-1.4l-1.3-2.8
	c-0.7-0.1-1.2-0.1-1.9,0l-1.3,2.8c-0.4,1-1.4,1.6-2.5,1.4l-3.1-0.3c-0.4,0.5-0.7,1-0.9,1.6l1.8,2.5c0.6,0.9,0.6,2,0,2.9l-1.8,2.5
	c0.3,0.6,0.6,1.1,0.9,1.6l3.1-0.3c1.1-0.1,2.1,0.5,2.5,1.4l1.3,2.8c0.7,0.1,1.2,0.1,1.9,0l1.3-2.8c0.4-1,1.4-1.6,2.5-1.4l3.1,0.3
	c0.4-0.5,0.7-1,0.9-1.6l-1.8-2.5c-0.6-0.9-0.6-2,0-2.9l1.8-2.5C44.6,127.5,44.3,127,43.9,126.5z M36.1,136.7c-2.7,0-4.8-2.1-4.8-4.7
	c0-2.6,2.2-4.7,4.8-4.7c2.7,0,4.8,2.1,4.8,4.7C40.9,134.6,38.7,136.7,36.1,136.7z M36.1,129.3c-1.5,0-2.8,1.2-2.8,2.7
	s1.3,2.7,2.8,2.7s2.8-1.2,2.8-2.7S37.6,129.3,36.1,129.3z"/>
<g>
	<g>
		<path class="st0" d="M70.8,154.8c0.8-0.8,0.4-2.2-0.8-2.4l-5.3-0.7c-0.5-0.1-0.9-0.4-1.1-0.8l-2.4-4.7c-0.5-1-2-1-2.6,0l-2.4,4.7
			c-0.2,0.4-0.6,0.7-1.1,0.8l-5.3,0.7c-1.2,0.2-1.6,1.6-0.8,2.4l3.8,3.6c0.3,0.3,0.5,0.8,0.4,1.2l-0.9,5.1c-0.2,1.1,1,2,2.1,1.5
			l4.7-2.4c0.4-0.2,0.9-0.2,1.3,0l4.7,2.4c1,0.5,2.3-0.3,2.1-1.5l-0.9-5.1c-0.1-0.5,0.1-0.9,0.4-1.2L70.8,154.8z"/>
	</g>
</g>
<path class="st5" d="M22.8,154.8c0.8-0.8,0.4-2.2-0.8-2.4l-5.3-0.7c-0.5-0.1-0.9-0.4-1.1-0.8l-2.4-4.7c-0.5-1-2-1-2.6,0L8.4,151
	c-0.2,0.4-0.6,0.7-1.1,0.8L2,152.5c-1.2,0.2-1.6,1.6-0.8,2.4l3.8,3.6c0.3,0.3,0.5,0.8,0.4,1.2l-0.9,5.1c-0.2,1.1,1,2,2.1,1.5
	l4.7-2.4c0.4-0.2,0.9-0.2,1.3,0l4.7,2.4c1,0.5,2.3-0.3,2.1-1.5l-0.9-5.1c-0.1-0.5,0.1-0.9,0.4-1.2L22.8,154.8z M17.9,157.1
	c-0.8,0.8-1.2,2-1,3.1l0.6,3.7c0,0.2-0.2,0.4-0.4,0.3l-3.5-1.8c-0.5-0.2-1-0.4-1.5-0.4s-1,0.1-1.5,0.4L7,164.1
	c-0.2,0.1-0.4-0.1-0.4-0.3l0.7-3.8c0.2-1-0.2-2.1-0.9-2.8l-2.8-2.7c-0.2-0.2-0.1-0.4,0.2-0.5l3.8-0.5c1.1-0.2,2.1-0.9,2.6-1.9
	l1.7-3.4c0.1-0.2,0.4-0.2,0.5,0l1.7,3.4c0.5,1,1.5,1.7,2.6,1.9l3.7,0.5c0.2,0,0.3,0.3,0.2,0.5L17.9,157.1z"/>
<path class="st0" d="M46.8,154.8c0.8-0.8,0.4-2.2-0.8-2.4l-5.3-0.7c-0.5-0.1-0.9-0.4-1.1-0.8l-2.4-4.7c-0.5-1-2-1-2.6,0l-2.4,4.7
	c-0.2,0.4-0.6,0.7-1.1,0.8l-5.3,0.7c-1.2,0.2-1.6,1.6-0.8,2.4l3.8,3.6c0.3,0.3,0.5,0.8,0.4,1.2l-0.9,5.1c-0.2,1.1,1,2,2.1,1.5
	l4.7-2.4c0.4-0.2,0.9-0.2,1.3,0l4.7,2.4c1,0.5,2.3-0.3,2.1-1.5l-0.9-5.1c-0.1-0.5,0.1-0.9,0.4-1.2L46.8,154.8z M41.9,157.1
	c-0.8,0.8-1.2,2-1,3.1l0.6,3.7c0,0.2-0.2,0.4-0.4,0.3l-3.5-1.8c-0.5-0.2-1-0.4-1.5-0.4s-1,0.1-1.5,0.4l-3.5,1.8
	c-0.2,0.1-0.4-0.1-0.4-0.3l0.7-3.8c0.2-1-0.2-2.1-0.9-2.8l-2.8-2.7c-0.2-0.2-0.1-0.4,0.2-0.5l3.8-0.5c1.1-0.2,2.1-0.9,2.6-1.9
	l1.7-3.4c0.1-0.2,0.4-0.2,0.5,0l1.7,3.4c0.5,1,1.5,1.7,2.6,1.9l3.7,0.5c0.2,0,0.3,0.3,0.2,0.5L41.9,157.1z"/>
<path class="st4" d="M12.1,182c-1.1,0-2-0.9-2-2s0.9-2,2-2s2,0.9,2,2S13.2,182,12.1,182z M12.1,174c-1.1,0-2-0.9-2-2s0.9-2,2-2
	s2,0.9,2,2S13.2,174,12.1,174z M12.1,186c1.1,0,2,0.9,2,2s-0.9,2-2,2s-2-0.9-2-2S11,186,12.1,186z"/>
<path class="st0" d="M36.1,182c-1.1,0-2-0.9-2-2s0.9-2,2-2s2,0.9,2,2S37.2,182,36.1,182z M36.1,174c-1.1,0-2-0.9-2-2s0.9-2,2-2
	s2,0.9,2,2S37.2,174,36.1,174z M36.1,186c1.1,0,2,0.9,2,2s-0.9,2-2,2s-2-0.9-2-2S35,186,36.1,186z"/>
<path class="st6" d="M15.1,210.6h-0.5v1.9c0,0.5-0.4,1-1,1c-0.6,0-1-0.4-1-1v-1.9h-1v1.9c0,0.5-0.4,1-1,1c-0.6,0-1-0.4-1-1v-1.9H9.1
	c-0.6,0-1-0.4-1-1v-5.9c0-0.5,0.4-1,1-1h6c0.6,0,1,0.4,1,1v5.9C16.1,210.2,15.7,210.6,15.1,210.6z M14.1,204.7h-4v4h4V204.7z
	 M12.1,201.4c-1.9,0-3.5-1.6-3.5-3.5c0-1.9,1.6-3.5,3.5-3.5c1.9,0,3.5,1.6,3.5,3.5C15.6,199.9,14,201.4,12.1,201.4z M12.1,196.5
	c-0.8,0-1.5,0.7-1.5,1.5c0,0.8,0.7,1.5,1.5,1.5c0.8,0,1.5-0.7,1.5-1.5C13.6,197.1,12.9,196.5,12.1,196.5z"/>
<path class="st7" d="M39.1,210.6h-0.5v1.9c0,0.5-0.4,1-1,1c-0.6,0-1-0.4-1-1v-1.9h-1v1.9c0,0.5-0.4,1-1,1c-0.6,0-1-0.4-1-1v-1.9
	h-0.5c-0.6,0-1-0.4-1-1v-5.9c0-0.5,0.4-1,1-1h6c0.6,0,1,0.4,1,1v5.9C40.1,210.2,39.7,210.6,39.1,210.6z M38.1,204.7h-4v4h4V204.7z
	 M36.1,201.4c-1.9,0-3.5-1.6-3.5-3.5c0-1.9,1.6-3.5,3.5-3.5c1.9,0,3.5,1.6,3.5,3.5C39.6,199.9,38,201.4,36.1,201.4z M36.1,196.5
	c-0.8,0-1.5,0.7-1.5,1.5c0,0.8,0.7,1.5,1.5,1.5c0.8,0,1.5-0.7,1.5-1.5C37.6,197.1,36.9,196.5,36.1,196.5z"/>
<path class="st6" d="M16.9,234.1c-0.2,0.3-0.5,0.5-0.9,0.5h-1.5v1.9c0,0.5-0.4,1-1,1c-0.5,0-1-0.4-1-1v-1.9h-1v1.9c0,0.5-0.4,1-1,1
	c-0.5,0-1-0.4-1-1v-1.9H8.1c-0.4,0-0.7-0.2-0.9-0.5c-0.2-0.3-0.2-0.7,0-1l4-5.9c0.4-0.6,1.3-0.6,1.6,0l4,5.9
	C17.1,233.4,17.1,233.8,16.9,234.1z M12.1,229.5l-2.1,3.2h4.2L12.1,229.5z M12.1,225.4c-1.9,0-3.5-1.6-3.5-3.5
	c0-1.9,1.6-3.5,3.5-3.5c1.9,0,3.5,1.6,3.5,3.5C15.6,223.9,14,225.4,12.1,225.4z M12.1,220.5c-0.8,0-1.5,0.7-1.5,1.5
	c0,0.8,0.7,1.5,1.5,1.5c0.8,0,1.5-0.7,1.5-1.5C13.6,221.1,12.9,220.5,12.1,220.5z"/>
<path class="st7" d="M40.9,234.1c-0.2,0.3-0.5,0.5-0.9,0.5h-1.5v1.9c0,0.5-0.4,1-1,1c-0.5,0-1-0.4-1-1v-1.9h-1v1.9c0,0.5-0.4,1-1,1
	c-0.5,0-1-0.4-1-1v-1.9h-1.5c-0.4,0-0.7-0.2-0.9-0.5c-0.2-0.3-0.2-0.7,0-1l4-5.9c0.4-0.6,1.3-0.6,1.6,0l4,5.9
	C41.1,233.4,41.1,233.8,40.9,234.1z M36.1,229.5l-2.1,3.2h4.2L36.1,229.5z M36.1,225.4c-1.9,0-3.5-1.6-3.5-3.5
	c0-1.9,1.6-3.5,3.5-3.5c1.9,0,3.5,1.6,3.5,3.5C39.6,223.9,38,225.4,36.1,225.4z M36.1,220.5c-0.8,0-1.5,0.7-1.5,1.5
	c0,0.8,0.7,1.5,1.5,1.5c0.8,0,1.5-0.7,1.5-1.5C37.6,221.1,36.9,220.5,36.1,220.5z"/>
</svg>
