<svg id="Группа_1" data-name="Группа 1" xmlns="http://www.w3.org/2000/svg" width="30" height="30" viewBox="0 0 30 30">
  <defs>
    <style>
      .cls-1 {
        fill: #39f;
      }

      .cls-2 {
        fill: #fff;
        fill-rule: evenodd;
      }
    </style>
  </defs>
  <rect id="del" class="cls-1" width="30" height="30" rx="7" ry="7"/>
  <path class="cls-2" d="M3150.76,609.6a1.045,1.045,0,0,1-.72-0.283l-3.44-3.28a0.932,0.932,0,0,1,0-1.37,1.054,1.054,0,0,1,1.44,0l2.72,2.6,4.57-4.345a1.056,1.056,0,0,1,1.44,0,0.948,0.948,0,0,1,0,1.37l-5.29,5.03A1.045,1.045,0,0,1,3150.76,609.6Z" transform="translate(-3137 -590)"/>
</svg>
